UK Ward Boundaries for Mapping • wardboundaries
…
Use and examples

Access

Accessing a dataset can be done two ways.

By namespace, without loading the whole library

wardboundaries::wards_dec2022
#> Simple feature collection with 8483 features and 12 fields
#> Geometry type: MULTIPOLYGON
#> Dimension:     XY
#> Bounding box:  xmin: -8.649996 ymin: 49.88234 xmax: 1.763571 ymax: 60.86087
#> Geodetic CRS:  WGS 84
#> # A tibble: 8,483 × 13
#>    WD22CD    WD22NM   WD22NMW LAD22CD LAD22NM  BNG_E  BNG_N  LONG   LAT OBJECTID
#>    <chr>     <chr>    <chr>   <chr>   <chr>    <int>  <int> <dbl> <dbl>    <int>
#>  1 E05000650 Astley … " "     E08000… Bolton  370670 412906 -2.44  53.6        1
#>  2 E05000651 Bradshaw " "     E08000… Bolton  374590 413058 -2.39  53.6        2
#>  3 E05000652 Breight… " "     E08000… Bolton  374437 409641 -2.39  53.6        3
#>  4 E05000653 Bromley… " "     E08000… Bolton  372113 414150 -2.42  53.6        4
#>  5 E05000654 Crompton " "     E08000… Bolton  371741 410493 -2.43  53.6        5
#>  6 E05000655 Farnwor… " "     E08000… Bolton  373564 406162 -2.40  53.6        6
#>  7 E05000656 Great L… " "     E08000… Bolton  371959 408204 -2.42  53.6        7
#>  8 E05000657 Halliwe… " "     E08000… Bolton  370828 409676 -2.44  53.6        8
#>  9 E05000658 Harper … " "     E08000… Bolton  371512 406080 -2.43  53.6        9
#> 10 E05000659 Heaton … " "     E08000… Bolton  367961 409240 -2.49  53.6       10
#> # ℹ 8,473 more rows
#> # ℹ 3 more variables: Shape__Area <dbl>, Shape__Length <dbl>,
#> #   geometry <MULTIPOLYGON [°]>

Or by loading the whole library

library(wardboundaries)

wards_dec2022
#> Simple feature collection with 8483 features and 12 fields
#> Geometry type: MULTIPOLYGON
#> Dimension:     XY
#> Bounding box:  xmin: -8.649996 ymin: 49.88234 xmax: 1.763571 ymax: 60.86087
#> Geodetic CRS:  WGS 84
#> # A tibble: 8,483 × 13
#>    WD22CD    WD22NM   WD22NMW LAD22CD LAD22NM  BNG_E  BNG_N  LONG   LAT OBJECTID
#>    <chr>     <chr>    <chr>   <chr>   <chr>    <int>  <int> <dbl> <dbl>    <int>
#>  1 E05000650 Astley … " "     E08000… Bolton  370670 412906 -2.44  53.6        1
#>  2 E05000651 Bradshaw " "     E08000… Bolton  374590 413058 -2.39  53.6        2
#>  3 E05000652 Breight… " "     E08000… Bolton  374437 409641 -2.39  53.6        3
#>  4 E05000653 Bromley… " "     E08000… Bolton  372113 414150 -2.42  53.6        4
#>  5 E05000654 Crompton " "     E08000… Bolton  371741 410493 -2.43  53.6        5
#>  6 E05000655 Farnwor… " "     E08000… Bolton  373564 406162 -2.40  53.6        6
#>  7 E05000656 Great L… " "     E08000… Bolton  371959 408204 -2.42  53.6        7
#>  8 E05000657 Halliwe… " "     E08000… Bolton  370828 409676 -2.44  53.6        8
#>  9 E05000658 Harper … " "     E08000… Bolton  371512 406080 -2.43  53.6        9
#> 10 E05000659 Heaton … " "     E08000… Bolton  367961 409240 -2.49  53.6       10
#> # ℹ 8,473 more rows
#> # ℹ 3 more variables: Shape__Area <dbl>, Shape__Length <dbl>,
#> #   geometry <MULTIPOLYGON [°]>

Map with ggplot2

Perhaps you have some sort of demographic data for each ward. Plotting this as a choropleth with ggplot2 is nice and straightforward

# Make some random numbers that represent a demographic dataset 
demo_data <- tibble::tibble(
  WD22CD = dplyr::pull(wardboundaries::wards_dec2022, WD22CD),
  number_of_ducks = sample(
    150:1500, nrow(wardboundaries::wards_dec2022), replace = TRUE
    )
)

demo_data
#> # A tibble: 8,483 × 2
#>    WD22CD    number_of_ducks
#>    <chr>               <int>
#>  1 E05000650            1490
#>  2 E05000651            1194
#>  3 E05000652            1424
#>  4 E05000653             495
#>  5 E05000654            1478
#>  6 E05000655            1414
#>  7 E05000656             193
#>  8 E05000657             845
#>  9 E05000658             381
#> 10 E05000659             391
#> # ℹ 8,473 more rows
…
